twri r-manual - 2 Data Exploration
…
ℹ Use `spec()` to retrieve the full column specification for this data.
ℹ Specify the column types or set `show_col_types = FALSE` to quiet this message.

read_csv() guesses the column types and sometimes it can guess wrong, so the safest option is to tell it what to expect using the col_types argument. This argument takes a string where each character represents one column. Here we will tell it to expect a character, Date, character, number, number which is represented as cDcnn.

df <- read_csv(file = "data/easterwood.csv",
               col_types = "cDcnn")
df

# A tibble: 4,045 × 5
   station     date       name                 dailymaximumdry… dailyprecipitat…
   <chr>       <date>     <chr>                           <dbl>            <dbl>
 1 74746003904 2010-07-31 COLLEGE STATION EAS…               99                0
 2 74746003904 2010-08-01 COLLEGE STATION EAS…              102                0
 3 74746003904 2010-08-02 COLLEGE STATION EAS…              101                0
 4 74746003904 2010-08-03 COLLEGE STATION EAS…              100                0
 5 74746003904 2010-08-04 COLLEGE STATION EAS…               99                0
 6 74746003904 2010-08-05 COLLEGE STATION EAS…               99                0
 7 74746003904 2010-08-06 COLLEGE STATION EAS…               99                0
 8 74746003904 2010-08-07 COLLEGE STATION EAS…               99                0
 9 74746003904 2010-08-08 COLLEGE STATION EAS…               99                0
10 74746003904 2010-08-09 COLLEGE STATION EAS…              100                0
# … with 4,035 more rows
…
               col_types = cols_only(
                 StationCode = col_factor(),
                 DateTimeStamp = col_datetime(format = "%m/%e/%Y %H:%M"),
                 Temp = col_number(),
                 F_Temp = col_character(),
                 SpCond = col_number(),
                 F_SpCond = col_character(),
                 Sal = col_number(),
                 F_Sal = col_character(),
                 DO_mgl = col_number(),
                 F_DO_mgl = col_character()
               ))
df

# A tibble: 140,352 × 10
   StationCode DateTimeStamp        Temp F_Temp SpCond F_SpCond   Sal F_Sal
   <fct>       <dttm>              <dbl> <chr>   <dbl> <chr>    <dbl> <chr>
 1 marabwq     2020-01-01 00:00:00  15.5 <0>      38.2 <0>       24.3 <0>  
 2 marabwq     2020-01-01 00:15:00  15.5 <0>      38.2 <0>       24.3 <0>  
 3 marabwq     2020-01-01 00:30:00  15.5 <0>      38.2 <0>       24.3 <0>  
 4 marabwq     2020-01-01 00:45:00  15.5 <0>      38.2 <0>       24.3 <0>  
 5 marabwq     2020-01-01 01:00:00  15.5 <0>      38.2 <0>       24.3 <0>  
 6 marabwq     2020-01-01 01:15:00  15.5 <0>      38.2 <0>       24.4 <0>  
 7 marabwq     2020-01-01 01:30:00  15.5 <0>      38.3 <0>       24.4 <0>  
 8 marabwq     2020-01-01 01:45:00  15.5 <0>      38.3 <0>       24.4 <0>  
 9 marabwq     2020-01-01 02:00:00  15.5 <0>      38.3 <0>       24.4 <0>  
10 marabwq     2020-01-01 02:15:00  15.5 <0>      38.3 <0>       24.4 <0>  
# … with 140,342 more rows, and 2 more variables: DO_mgl <dbl>, F_DO_mgl <chr>
…
# A tibble: 1 × 10
  StationCode DateTimeStamp        Temp F_Temp       SpCond F_SpCond   Sal F_Sal
  <fct>       <dttm>              <dbl> <chr>         <dbl> <chr>    <dbl> <chr>
1 marcewq     2021-08-23 20:45:00  -100 <-3> [GIM] … -1211. <-3> [G…   -99 <-3>…
# … with 2 more variables: DO_mgl <dbl>, F_DO_mgl <chr>

The F_Temp qa flag is < -3 > indicating QA rejected the data point. So, let’s update the data to remove data that doesn’t have the < 0 > data flag:

df <- df |> 
  filter(F_Temp == "<0>")
df

# A tibble: 111,090 × 10
   StationCode DateTimeStamp        Temp F_Temp SpCond F_SpCond   Sal F_Sal
   <fct>       <dttm>              <dbl> <chr>   <dbl> <chr>    <dbl> <chr>
 1 marabwq     2020-01-01 00:00:00  15.5 <0>      38.2 <0>       24.3 <0>  
 2 marabwq     2020-01-01 00:15:00  15.5 <0>      38.2 <0>       24.3 <0>  
 3 marabwq     2020-01-01 00:30:00  15.5 <0>      38.2 <0>       24.3 <0>  
 4 marabwq     2020-01-01 00:45:00  15.5 <0>      38.2 <0>       24.3 <0>  
 5 marabwq     2020-01-01 01:00:00  15.5 <0>      38.2 <0>       24.3 <0>  
 6 marabwq     2020-01-01 01:15:00  15.5 <0>      38.2 <0>       24.4 <0>  
 7 marabwq     2020-01-01 01:30:00  15.5 <0>      38.3 <0>       24.4 <0>  
 8 marabwq     2020-01-01 01:45:00  15.5 <0>      38.3 <0>       24.4 <0>  
 9 marabwq     2020-01-01 02:00:00  15.5 <0>      38.3 <0>       24.4 <0>  
10 marabwq     2020-01-01 02:15:00  15.5 <0>      38.3 <0>       24.4 <0>  
# … with 111,080 more rows, and 2 more variables: DO_mgl <dbl>, F_DO_mgl <chr>
…
