twri r-manual - 7 Load Duration Curves
…
df_ldc <- calc_ldc(Q_df, 
                   Q = flow, 
                   C = value, 
                   allowable_concentration = allowable_concentration,
                   breaks = c(1, 0.9, 0.6, 0.4, 0.1, 0),
                   labels = c("Highest Flows", 
                              "Moist Conditions",
                              "Mid-range Flows",
                              "Dry Conditions",
                              "Low Flows"))
df_ldc

# A tibble: 7,671 × 13
   agency_cd site_no  date          flow flow_cd station_id parameter_code value
   <chr>     <chr>    <date>     [ft^3/… <chr>   <fct>      <chr>          [MPN…
 1 USGS      08162600 2000-08-18    0.22 A       <NA>       <NA>              NA
 2 USGS      08162600 2000-03-07    0.42 A       <NA>       <NA>              NA
 3 USGS      08162600 2000-03-06    0.6  A       <NA>       <NA>              NA
 4 USGS      08162600 2000-08-22    0.75 A       <NA>       <NA>              NA
 5 USGS      08162600 2000-03-08    0.78 A       <NA>       <NA>              NA
 6 USGS      08162600 2000-08-17    0.78 A       <NA>       <NA>              NA
 7 USGS      08162600 2000-09-11    0.8  A       <NA>       <NA>              NA
 8 USGS      08162600 2000-01-01    0.84 A       <NA>       <NA>              NA
 9 USGS      08162600 2000-08-21    0.93 A       <NA>       <NA>              NA
10 USGS      08162600 2000-03-05    1    A       <NA>       <NA>              NA
# ℹ 7,661 more rows
# ℹ 5 more variables: Daily_Flow_Volume [100mL/d], Daily_Load [MPN/d],
#   Allowable_Daily_Load [MPN/d], P_Exceedance <dbl>, Flow_Category <fct>
…
Update units in df_ldc also:

df_ldc <- df_ldc |> 
  mutate(Daily_Load = set_units(Daily_Load, 
                                "1E9MPN/day"),
         Allowable_Daily_Load = set_units(Allowable_Daily_Load, 
                                          "1E9MPN/day"))
df_ldc

# A tibble: 7,671 × 13
   agency_cd site_no  date          flow flow_cd station_id parameter_code value
   <chr>     <chr>    <date>     [ft^3/… <chr>   <fct>      <chr>          [MPN…
 1 USGS      08162600 2000-08-18    0.22 A       <NA>       <NA>              NA
 2 USGS      08162600 2000-03-07    0.42 A       <NA>       <NA>              NA
 3 USGS      08162600 2000-03-06    0.6  A       <NA>       <NA>              NA
 4 USGS      08162600 2000-08-22    0.75 A       <NA>       <NA>              NA
 5 USGS      08162600 2000-03-08    0.78 A       <NA>       <NA>              NA
 6 USGS      08162600 2000-08-17    0.78 A       <NA>       <NA>              NA
 7 USGS      08162600 2000-09-11    0.8  A       <NA>       <NA>              NA
 8 USGS      08162600 2000-01-01    0.84 A       <NA>       <NA>              NA
 9 USGS      08162600 2000-08-21    0.93 A       <NA>       <NA>              NA
10 USGS      08162600 2000-03-05    1    A       <NA>       <NA>              NA
# ℹ 7,661 more rows
# ℹ 5 more variables: Daily_Flow_Volume [100mL/d], Daily_Load [1E9MPN/d],
#   Allowable_Daily_Load [1E9MPN/d], P_Exceedance <dbl>, Flow_Category <fct>
…
