twri r-manual - 6 Water Quality Data
…
df

# A tibble: 5,648 × 11
   segment_id station_id station_description        end_date   collecting_entity
   <chr>      <fct>      <chr>                      <date>     <chr>            
 1 1502       12517      TRES PALACIOS CREEK AT FM… 1987-09-22 TCEQ REGIONAL OF…
 2 1502       12517      TRES PALACIOS CREEK AT FM… 1987-09-22 TCEQ REGIONAL OF…
 3 1502       12517      TRES PALACIOS CREEK AT FM… 1987-09-22 TCEQ REGIONAL OF…
 4 1502       12517      TRES PALACIOS CREEK AT FM… 1987-09-22 TCEQ REGIONAL OF…
 5 1502       12517      TRES PALACIOS CREEK AT FM… 1987-09-22 TCEQ REGIONAL OF…
 6 1502       12517      TRES PALACIOS CREEK AT FM… 1987-09-22 TCEQ REGIONAL OF…
 7 1502       12517      TRES PALACIOS CREEK AT FM… 1987-09-22 TCEQ REGIONAL OF…
 8 1502       12517      TRES PALACIOS CREEK AT FM… 1987-09-22 TCEQ REGIONAL OF…
 9 1502       12517      TRES PALACIOS CREEK AT FM… 1987-09-22 TCEQ REGIONAL OF…
10 1502       12517      TRES PALACIOS CREEK AT FM… 1987-09-22 TCEQ REGIONAL OF…
# ℹ 5,638 more rows
# ℹ 6 more variables: monitoring_type <chr>, composite_category <chr>,
#   parameter_name <chr>, parameter_code <chr>, value <dbl>, rfa_tag_id <chr>
…
